Lab 2 - Data wrangling
…
midwest |> 
  mutate(potential_outlier = if_else(
    percbelowpoverty > 40 & percollege < 10 | percollege > 40, "Yes", "No"
  )) |>
  select(county, state, percbelowpoverty, percollege, potential_outlier) |>
  arrange(potential_outlier)

# A tibble: 437 × 5
   county    state percbelowpoverty percollege potential_outlier
   <chr>     <chr>            <dbl>      <dbl> <chr>            
 1 ADAMS     IL               13.2        19.6 No               
 2 ALEXANDER IL               32.2        11.2 No               
 3 BOND      IL               12.1        17.0 No               
 4 BOONE     IL                7.21       17.3 No               
 5 BROWN     IL               13.5        14.5 No               
 6 BUREAU    IL               10.4        18.9 No               
 7 CALHOUN   IL               15.1        11.9 No               
 8 CARROLL   IL               11.7        16.2 No               
 9 CASS      IL               13.9        14.1 No               
10 CHRISTIAN IL               11.7        13.6 No               
# ℹ 427 more rows
…
